Startpoint: _42991_ (rising edge-triggered flip-flop clocked by clk)
Endpoint: _42991_ (rising edge-triggered flip-flop clocked by clk)
Path Group: clk
Path Type: min

Fanout     Cap    Slew   Delay    Time   Description
-----------------------------------------------------------------------------
                  0.00    0.00    0.00   clock clk (rise edge)
                          0.00    0.00   clock network delay (ideal)
                  0.00    0.00    0.00 ^ _42991_/CLK (sky130_fd_sc_hd__dfxtp_2)
                  0.03    0.18    0.18 ^ _42991_/Q (sky130_fd_sc_hd__dfxtp_2)
     2    0.00                           cpuregs[0][0] (net)
                  0.03    0.00    0.18 ^ _24208_/A (sky130_fd_sc_hd__buf_1)
                  0.02    0.04    0.23 ^ _24208_/X (sky130_fd_sc_hd__buf_1)
     1    0.00                           _02835_ (net)
                  0.02    0.00    0.23 ^ _42991_/D (sky130_fd_sc_hd__dfxtp_2)
                                  0.23   data arrival time

                  0.00    0.00    0.00   clock clk (rise edge)
                          0.00    0.00   clock network delay (ideal)
                          0.00    0.00   clock reconvergence pessimism
                                  0.00 ^ _42991_/CLK (sky130_fd_sc_hd__dfxtp_2)
                         -0.02   -0.02   library hold time
                                 -0.02   data required time
-----------------------------------------------------------------------------
                                 -0.02   data required time
                                 -0.23   data arrival time
-----------------------------------------------------------------------------
                                  0.24   slack (MET)


Startpoint: _42923_ (rising edge-triggered flip-flop clocked by clk)
Endpoint: _42703_ (rising edge-triggered flip-flop clocked by clk)
Path Group: clk
Path Type: max

Fanout     Cap    Slew   Delay    Time   Description
-----------------------------------------------------------------------------
                  0.00    0.00    0.00   clock clk (rise edge)
                          0.00    0.00   clock network delay (ideal)
                  0.00    0.00    0.00 ^ _42923_/CLK (sky130_fd_sc_hd__dfxtp_2)
                  1.01    1.31    1.31 ^ _42923_/Q (sky130_fd_sc_hd__dfxtp_2)
    39    0.13                           cpu_state[3] (net)
                  1.01    0.00    1.31 ^ _42093_/S (sky130_fd_sc_hd__mux2_1)
                  8.52    6.56    7.86 ^ _42093_/X (sky130_fd_sc_hd__mux2_1)
   161    0.63                           _00357_ (net)
                  8.52    0.00    7.86 ^ _42583_/S0 (sky130_fd_sc_hd__mux4_1)
                  0.18    2.51   10.37 v _42583_/X (sky130_fd_sc_hd__mux4_1)
     1    0.00                           _00361_ (net)
                  0.18    0.00   10.37 v _42586_/A1 (sky130_fd_sc_hd__mux4_1)
                  0.14    1.14   11.51 v _42586_/X (sky130_fd_sc_hd__mux4_1)
     1    0.00                           _00365_ (net)
                  0.14    0.00   11.51 v _42088_/A1 (sky130_fd_sc_hd__mux2_1)
                  0.13    0.70   12.22 v _42088_/X (sky130_fd_sc_hd__mux2_1)
     1    0.00                           _00370_ (net)
                  0.13    0.00   12.22 v _21612_/B (sky130_fd_sc_hd__nand2_2)
                  0.11    0.16   12.38 ^ _21612_/Y (sky130_fd_sc_hd__nand2_2)
     3    0.01                           _18851_ (net)
                  0.11    0.00   12.38 ^ _26230_/B2 (sky130_fd_sc_hd__o221a_2)
                  0.07    0.37   12.75 ^ _26230_/X (sky130_fd_sc_hd__o221a_2)
     1    0.00                           _01718_ (net)
                  0.07    0.00   12.75 ^ _41953_/A0 (sky130_fd_sc_hd__mux2_1)
                  0.07    0.21   12.96 ^ _41953_/X (sky130_fd_sc_hd__mux2_1)
     1    0.00                           _01719_ (net)
                  0.07    0.00   12.96 ^ _26238_/A1_N (sky130_fd_sc_hd__a2bb2o_2)
                  0.08    0.52   13.47 v _26238_/X (sky130_fd_sc_hd__a2bb2o_2)
     1    0.00                           _04123_ (net)
                  0.08    0.00   13.47 v _26239_/C1 (sky130_fd_sc_hd__a311o_2)
                  0.08    0.56   14.04 v _26239_/X (sky130_fd_sc_hd__a311o_2)
     1    0.00                           _01720_ (net)
                  0.08    0.00   14.04 v _41548_/A0 (sky130_fd_sc_hd__mux2_1)
                  0.10    0.61   14.65 v _41548_/X (sky130_fd_sc_hd__mux2_1)
     1    0.00                           _21109_ (net)
                  0.10    0.00   14.65 v _42703_/D (sky130_fd_sc_hd__dfxtp_2)
                                 14.65   data arrival time

                  0.00   24.73   24.73   clock clk (rise edge)
                          0.00   24.73   clock network delay (ideal)
                          0.00   24.73   clock reconvergence pessimism
                                 24.73 ^ _42703_/CLK (sky130_fd_sc_hd__dfxtp_2)
                         -0.31   24.42   library setup time
                                 24.42   data required time
-----------------------------------------------------------------------------
                                 24.42   data required time
                                -14.65   data arrival time
-----------------------------------------------------------------------------
                                  9.78   slack (MET)


