during executing: "/home/mariosurfe91/Desktop/work/tools/openlane_working_dir/openlane/scripts/libtrim.pl /home/kunalg123/Desktop/work/tools/openlane_working_dir/pdks/sky130A/libs.ref/sky130_fd_sc_hd/lib/sky130_fd_sc_hd__tt_025C_1v80.lib /home/mariosurfe91/Desktop/work/tools/openlane_working_dir/openlane/designs/picorv32a/runs/03-08_21-53/tmp/trimmed.lib.exclude.list > /home/mariosurfe91/Desktop/work/tools/openlane_working_dir/openlane/designs/picorv32a/runs/03-08_21-53/tmp/trimmed.lib"
Last 10 lines:
given is experimental at /home/mariosurfe91/Desktop/work/tools/openlane_working_dir/openlane/scripts/libtrim.pl line 41.
when is experimental at /home/mariosurfe91/Desktop/work/tools/openlane_working_dir/openlane/scripts/libtrim.pl line 42.
when is experimental at /home/mariosurfe91/Desktop/work/tools/openlane_working_dir/openlane/scripts/libtrim.pl line 59.
when is experimental at /home/mariosurfe91/Desktop/work/tools/openlane_working_dir/openlane/scripts/libtrim.pl line 67.

during executing: "python3 /home/mariosurfe91/Desktop/work/tools/openlane_working_dir/openlane/report_generation_wrapper.py -d /home/mariosurfe91/Desktop/work/tools/openlane_working_dir/openlane/designs/picorv32a -dn picorv32a -t 03-08_21-53 -o /home/mariosurfe91/Desktop/work/tools/openlane_working_dir/openlane/designs/picorv32a/runs/03-08_21-53/reports/final_summary_report.csv -m /home/mariosurfe91/Desktop/work/tools/openlane_working_dir/openlane/designs/picorv32a/runs/03-08_21-53/reports/manufacturability_report.rpt -rs /home/mariosurfe91/Desktop/work/tools/openlane_working_dir/openlane/designs/picorv32a/runs/03-08_21-53/reports/runtime_summary_report.rpt -r /home/mariosurfe91/Desktop/work/tools/openlane_working_dir/openlane/designs/picorv32a/runs/03-08_21-53"
Last 10 lines:
Traceback (most recent call last):
  File "/home/mariosurfe91/Desktop/work/tools/openlane_working_dir/openlane/report_generation_wrapper.py", line 20, in <module>
    from scripts.report.report import Report
  File "/home/mariosurfe91/Desktop/work/tools/openlane_working_dir/openlane/scripts/report/report.py", line 18, in <module>
    from ..utils.utils import *
  File "/home/mariosurfe91/Desktop/work/tools/openlane_working_dir/openlane/scripts/utils/utils.py", line 19, in <module>
    import pandas as pd
ModuleNotFoundError: No module named 'pandas'

